{
  "total": 6520,
  "total_page": 6520,
  "page": 1,
  "limit": 1,
  "filter": {
    "屆": [
      "11"
    ],
    "議案類別": [
      "法律案"
    ]
  },
  "id_fields": [
    "議案編號"
  ],
  "sort": [
    "最新進度日期"
  ],
  "output_fields": [
    "議案編號",
    "相關附件",
    "議案名稱",
    "提案單位/提案委員",
    "議案狀態",
    "資料抓取時間",
    "屆",
    "議案類別",
    "提案來源",
    "會議代碼",
    "會期",
    "字號",
    "提案編號",
    "法律編號",
    "最新進度日期",
    "提案人"
  ],
  "bills": [
    {
      "屆": 11,
      "議案編號": "202110213410000",
      "會議代碼": "院會-11-5-10",
      "資料抓取時間": "2026-05-12T21:18:17+08:00",
      "最新進度日期": "2026-05-19",
      "法律編號": [
        "01177"
      ],
      "法律編號:str": [
        "公職人員選舉罷免法"
      ],
      "相關附件": [
        {
          "名稱": "關係文書PDF",
          "網址": "https://ppg.ly.gov.tw/ppg/download/agenda1/02/pdf/11/05/10/LCEWA01_110510_00006.pdf"
        },
        {
          "名稱": "關係文書DOC",
          "網址": "https://ppg.ly.gov.tw/ppg/download/agenda1/02/word/11/05/10/LCEWA01_110510_00006.doc",
          "HTML結果": "https://v2.ly.govapi.tw/bill_doc/LCEWA01_110510_00006/html"
        }
      ],
      "議案名稱": "「公職人員選舉罷免法第十四條條文修正草案」，請審議案。",
      "提案單位/提案委員": "本院委員王世堅等17人",
      "議案狀態": "排入院會",
      "提案人": [
        "王世堅"
      ],
      "議案類別": "法律案",
      "提案來源": "委員提案",
      "會期": 5,
      "字號": "院總第20號委員提案第11021341號",
      "提案編號": "20委11021341",
      "url": "https://ppg.ly.gov.tw/ppg/bills/202110213410000/details"
    }
  ],
  "supported_filter_fields": [
    "屆",
    "會期",
    "議案流程.狀態",
    "議案類別",
    "提案人",
    "連署人",
    "法律編號",
    "議案狀態",
    "會議代碼",
    "提案來源",
    "議案編號",
    "提案編號",
    "字號",
    "法條編號",
    "提案日期",
    "提案單位/提案委員"
  ]
}
