{
  "total": 2259,
  "total_page": 2259,
  "page": 1,
  "limit": 1,
  "filter": {},
  "id_fields": [
    "公報編號"
  ],
  "sort": [
    "卷",
    "期",
    "冊別"
  ],
  "gazettes": [
    {
      "卷": 115,
      "期": 31,
      "冊別": 2,
      "發布日期": "2026-05-08",
      "公報編號": "1153102"
    }
  ],
  "supported_filter_fields": [
    "公報編號",
    "卷"
  ]
}
