{
  "total": 13277,
  "total_page": 13277,
  "page": 1,
  "limit": 1,
  "filter": {},
  "id_fields": [
    "法律編號"
  ],
  "sort": [
    "最新版本.日期",
    "法律編號"
  ],
  "laws": [
    {
      "法律編號": "04552",
      "類別": "母法",
      "母法編號": "",
      "名稱": "刑事訴訟法",
      "其他名稱": [
        "中華民國刑事訴訟法"
      ],
      "別名": [],
      "主管機關": [
        "司法院"
      ],
      "法律狀態": "現行",
      "最新版本": {
        "日期": "2026-04-17",
        "動作": null,
        "版本編號": null
      },
      "最早版本": {
        "日期": "1928-07-28",
        "動作": "制定",
        "版本編號": "1928-07-28-制定"
      }
    }
  ],
  "supported_filter_fields": [
    "法律編號",
    "類別",
    "母法編號",
    "法律狀態",
    "主管機關",
    "最新版本.日期"
  ]
}
