{
  "total": 123,
  "total_page": 123,
  "page": 1,
  "limit": 1,
  "filter": {
    "屆": [
      "11"
    ]
  },
  "id_fields": [
    "屆",
    "委員姓名"
  ],
  "legislators": [
    {
      "屆": 11,
      "委員姓名": "吳春城",
      "委員英文姓名": "WUCHUN-CHENG",
      "性別": "男",
      "黨籍": "台灣民眾黨",
      "黨團": "台灣民眾黨",
      "選區名稱": "全國不分區及僑居國外國民",
      "委員會": [
        "第11屆第1會期：教育及文化委員會",
        "第11屆第2會期：教育及文化委員會"
      ],
      "到職日": "2024/02/01",
      "學歷": [
        "復旦大學管理學博士",
        "中山大學法學碩士",
        "中央大學文學士"
      ],
      "經歷": [
        "壯世代教科文協會理事長",
        "馬偕醫學院暨馬偕醫護專校董事",
        "戰國策傳播集團創辦人世新大學兼任副教授",
        "台灣國際公共關係協會理事長",
        "復旦大學台灣校友會理事長",
        "2023台灣廣告業卓越貢獻獎",
        "2023亞洲年度品牌金獎得獎人",
        "2022獲選公關影響力人物",
        "國立中央大學傑出校"
      ],
      "照片位址": "https://www.ly.gov.tw//Images/Legislators/110015.jpg",
      "是否離職": "是",
      "離職日期": "2025/02/27",
      "離職原因": "辭職",
      "歷屆立法委員編號": 1261,
      "電話": [
        "國會研究室：02-2358-8116"
      ],
      "傳真": [
        "國會研究室：02-2358-8120"
      ],
      "通訊處": [
        "國會研究室：100224台北市中正區濟南路1段3之1號2103室"
      ]
    }
  ],
  "supported_filter_fields": [
    "屆",
    "黨籍",
    "選區名稱",
    "歷屆立法委員編號",
    "委員姓名"
  ]
}
