{
  "total": 1422,
  "total_page": 1422,
  "page": 1,
  "limit": 1,
  "filter": {
    "屆": [
      "11"
    ]
  },
  "id_fields": [
    "會議代碼"
  ],
  "sort": [
    "屆",
    "會期",
    "日期"
  ],
  "meets": [
    {
      "屆": 11,
      "會議代碼": "委員會-11-5-35-17",
      "會議種類": "委員會",
      "委員會代號": [
        35
      ],
      "委員會代號:str": [
        "外交及國防委員會"
      ],
      "會期": 5,
      "會次": 17,
      "日期": [
        "2026-05-18",
        "2026-05-20",
        "2026-05-21"
      ],
      "會議標題": "第11屆第5會期外交及國防委員會第17次全體委員會議",
      "會議資料": [
        {
          "屆": 11,
          "會期": 5,
          "會次": "null",
          "臨時會會次": "null",
          "會議編號": "2026051245",
          "會議時間區間": "115/05/18 09:00-17:30",
          "會議地點": "紅樓301會議室",
          "會議單位": "外交及國防委員會",
          "聯席委員會": null,
          "會議名稱": "立法院第11屆第5會期外交及國防委員會第17次全體委員會議",
          "會議事由": "【含秘密會議】5月18日（星期一）（處理）一、繼續審查115年度中央政府總預算案關於國軍退除役官兵輔導委員會主管收支部分。二、繼續審查115年度中央政府總預算案附屬單位預算關於國軍退除役官兵輔導委員會主管非營業基金－作業基金： （一）國軍退除役官兵安置基金。（二）榮民醫療作業基金。5月20日（星期三）（僅詢答）一、審查115年度中央政府總預算案關於僑務委員會主管收支公開及機密部分。二、審查115年度中央政府總預算案附屬單位預算關於僑務委員會主管信託基金： （一）莊守耕公益基金。（二）受理捐贈僑生獎助學金及艱困地區僑民學校師資輔助金基金。5月21日（星期四）（處理）繼續審查115年度中央政府總預算案關於國防部主管收支公開及機密部分（不含國家安全局部分）。",
          "委員會召集委員": "陳冠廷（115/05/18）馬文君（115/05/20）陳冠廷（115/05/21）委員",
          "出席委員": [],
          "屆別期別篩選條件": "1105",
          "日期": "2026-05-18",
          "開始時間": "2026-05-18T09:00:00",
          "結束時間": "2026-05-18T17:30:00",
          "ppg_url": "https://ppg.ly.gov.tw/ppg/sittings/2026051245/details?meetingDate=115/05/18"
        },
        {
          "屆": 11,
          "會期": 5,
          "會次": "null",
          "臨時會會次": "null",
          "會議編號": "2026051245",
          "會議時間區間": "115/05/20 09:00-17:30",
          "會議地點": "紅樓301會議室",
          "會議單位": "外交及國防委員會",
          "聯席委員會": null,
          "會議名稱": "立法院第11屆第5會期外交及國防委員會第17次全體委員會議",
          "會議事由": "【含秘密會議】5月18日（星期一）（處理）一、繼續審查115年度中央政府總預算案關於國軍退除役官兵輔導委員會主管收支部分。二、繼續審查115年度中央政府總預算案附屬單位預算關於國軍退除役官兵輔導委員會主管非營業基金－作業基金： （一）國軍退除役官兵安置基金。（二）榮民醫療作業基金。5月20日（星期三）（僅詢答）一、審查115年度中央政府總預算案關於僑務委員會主管收支公開及機密部分。二、審查115年度中央政府總預算案附屬單位預算關於僑務委員會主管信託基金： （一）莊守耕公益基金。（二）受理捐贈僑生獎助學金及艱困地區僑民學校師資輔助金基金。5月21日（星期四）（處理）繼續審查115年度中央政府總預算案關於國防部主管收支公開及機密部分（不含國家安全局部分）。",
          "委員會召集委員": "陳冠廷（115/05/18）馬文君（115/05/20）陳冠廷（115/05/21）委員",
          "出席委員": [],
          "屆別期別篩選條件": "1105",
          "日期": "2026-05-20",
          "開始時間": "2026-05-20T09:00:00",
          "結束時間": "2026-05-20T17:30:00",
          "ppg_url": "https://ppg.ly.gov.tw/ppg/sittings/2026051245/details?meetingDate=115/05/20"
        },
        {
          "屆": 11,
          "會期": 5,
          "會次": "null",
          "臨時會會次": "null",
          "會議編號": "2026051245",
          "會議時間區間": "115/05/21 09:00-17:30",
          "會議地點": "紅樓301會議室",
          "會議單位": "外交及國防委員會",
          "聯席委員會": null,
          "會議名稱": "立法院第11屆第5會期外交及國防委員會第17次全體委員會議",
          "會議事由": "【含秘密會議】5月18日（星期一）（處理）一、繼續審查115年度中央政府總預算案關於國軍退除役官兵輔導委員會主管收支部分。二、繼續審查115年度中央政府總預算案附屬單位預算關於國軍退除役官兵輔導委員會主管非營業基金－作業基金： （一）國軍退除役官兵安置基金。（二）榮民醫療作業基金。5月20日（星期三）（僅詢答）一、審查115年度中央政府總預算案關於僑務委員會主管收支公開及機密部分。二、審查115年度中央政府總預算案附屬單位預算關於僑務委員會主管信託基金： （一）莊守耕公益基金。（二）受理捐贈僑生獎助學金及艱困地區僑民學校師資輔助金基金。5月21日（星期四）（處理）繼續審查115年度中央政府總預算案關於國防部主管收支公開及機密部分（不含國家安全局部分）。",
          "委員會召集委員": "陳冠廷（115/05/18）馬文君（115/05/20）陳冠廷（115/05/21）委員",
          "出席委員": [],
          "屆別期別篩選條件": "1105",
          "日期": "2026-05-21",
          "開始時間": "2026-05-21T09:00:00",
          "結束時間": "2026-05-21T17:30:00",
          "ppg_url": "https://ppg.ly.gov.tw/ppg/sittings/2026051245/details?meetingDate=115/05/21"
        }
      ],
      "議事網資料": [
        {
          "關係文書": {
            "議案": [
              {
                "標題": "行政院函請審議「115年度中央政府總預算案（含附屬單位預算及綜計表－營業及非營業部分）」案。",
                "議案編號": "301110158310200",
                "法律編號": []
              },
              {
                "標題": "行政院「115年度中央政府總預算案（含附屬單位預算及綜計表－非營業部分）」案。",
                "議案編號": "301110158311600",
                "法律編號": []
              }
            ]
          },
          "資訊": [
            "會議",
            "關係文書"
          ],
          "日期": [
            "115年05月21日 (四) 09:00-17:30"
          ],
          "連結": [
            {
              "格式": null,
              "連結": "https://ivod.ly.gov.tw/Demand/Meetvod?Meet=",
              "標題": "會議影片",
              "類型": "video"
            }
          ],
          "地點": "紅樓301會議室",
          "標題": "立法院第11屆第5會期外交及國防委員會第17次全體委員會議",
          "內容": "【含秘密會議】5月18日（星期一）（處理）一、繼續審查115年度中央政府總預算案關於國軍退除役官兵輔導委員會主管收支部分。二、繼續審查115年度中央政府總預算案附屬單位預算關於國軍退除役官兵輔導委員會主管非營業基金－作業基金： （一）國軍退除役官兵安置基金。（二）榮民醫療作業基金。5月20日（星期三）（僅詢答）一、審查115年度中央政府總預算案關於僑務委員會主管收支公開及機密部分。二、審查115年度中央政府總預算案附屬單位預算關於僑務委員會主管信託基金： （一）莊守耕公益基金。（二）受理捐贈僑生獎助學金及艱困地區僑民學校師資輔助金基金。5月21日（星期四）（處理）繼續審查115年度中央政府總預算案關於國防部主管收支公開及機密部分（不含國家安全局部分）。",
          "召集人": "陳冠廷（115/05/18）馬文君（115/05/20）陳冠廷（115/05/21）委員"
        }
      ],
      "name": "第11屆第5會期外交及國防委員會第17次全體委員會議"
    }
  ],
  "supported_filter_fields": [
    "屆",
    "會議代碼",
    "會期",
    "會議種類",
    "會議資料.出席委員",
    "日期",
    "委員會代號",
    "會議資料.會議編號",
    "議事網資料.關係文書.議案.議案編號",
    "議事網資料.關係文書.議案.法律編號"
  ]
}
